/home/s/work/can2rs485/SocketCAN_Linux_V1.1.148.0/usb-to-can_socketcan/ixx_usb.ko
/home/s/work/can2rs485/SocketCAN_Linux_V1.1.148.0/usb-to-can_socketcan/ixx_usb_v2.o /home/s/work/can2rs485/SocketCAN_Linux_V1.1.148.0/usb-to-can_socketcan/ixx_usb_fd.o /home/s/work/can2rs485/SocketCAN_Linux_V1.1.148.0/usb-to-can_socketcan/ixx_usb_core.o

