/home/s/work/can2rs485/SocketCAN_Linux_V1.1.148.0/can-ibxxx_socketcan/ixx_pci.ko
/home/s/work/can2rs485/SocketCAN_Linux_V1.1.148.0/can-ibxxx_socketcan/ixx_pci_core.o /home/s/work/can2rs485/SocketCAN_Linux_V1.1.148.0/can-ibxxx_socketcan/ixx_pci_ib_fd_passive.o /home/s/work/can2rs485/SocketCAN_Linux_V1.1.148.0/can-ibxxx_socketcan/ixx_pci_ib_passive.o /home/s/work/can2rs485/SocketCAN_Linux_V1.1.148.0/can-ibxxx_socketcan/ixx_pci_ib_active.o

